// Jest Snapshot v1, https://goo.gl/fbAQLP

exports[`Listing.vue should display base contents when no jobs 1`] = `
<div class="container-fluid">
    <!---->
    <h1 class="mt-3">Dashboard</h1>
    <!---->
    <button data-toggle="modal" data-target="#addModal" class="btn btn-outline-primary mb-2">
        <!---->Add
    </button>
    <div tabindex="-1" role="dialog" id="addModal" class="modal">
        <div class="modal-dialog">
            <div class="modal-content">
                <div class="modal-header">
                    <h5 class="modal-title">Add Job</h5>
                    <button type="button" data-dismiss="modal" aria-label="close" class="close"><span aria-hidden="true">×</span></button>
                </div>
                <div class="modal-body">
                    <form id="jobAdd" method="post">
                        <div class="form-group">
                            <label>Position Title</label>
                            <input type="text" required="required" id="jobtitle" class="form-control">
                        </div>
                    </form>
                </div>
                <div class="modal-footer">
                    <button type="button" data-dismiss="modal" class="btn btn-outline-secondary">Cancel</button>
                    <button type="submit" form="jobAdd" class="btn btn-outline-primary">Save</button>
                </div>
            </div>
        </div>
    </div>
</div>
`;
